{
    "Items": [
        {
            "actorName": "guimanager",
            "directions": [
                "n",
                "e",
                "s",
                "w",
                "ne",
                "nw",
                "se",
                "sw"
            ],
            "movementSpeed": 2.0,
            "rotationSpeed": 5.0
        },
		{
            "actorName": "robotfacade",
            "directions": [
                "n",
                "e",
                "s",
                "w",
                "ne",
                "nw",
                "se",
                "sw"
            ],
            "movementSpeed": 2.0,
            "rotationSpeed": 5.0
        }
    ]
}